<?xml version="1.0" encoding="UTF-8" standalone="no"?>
<svg
   xmlns:dc="http://purl.org/dc/elements/1.1/"
   xmlns:cc="http://creativecommons.org/ns#"
   xmlns:rdf="http://www.w3.org/1999/02/22-rdf-syntax-ns#"
   xmlns:svg="http://www.w3.org/2000/svg"
   xmlns="http://www.w3.org/2000/svg"
   xmlns:sodipodi="http://sodipodi.sourceforge.net/DTD/sodipodi-0.dtd"
   xmlns:inkscape="http://www.inkscape.org/namespaces/inkscape"
   width="132.00021mm"
   height="132.00021mm"
   viewBox="0 0 132.00021 132.00021"
   version="1.1"
   id="svg8"
   inkscape:version="1.0.1 (3bc2e813f5, 2020-09-07)"
   sodipodi:docname="streamchecker6.svg">
  <title
     id="title951">StreamerRetriever</title>
  <defs
     id="defs2">
    <rect
       x="82.621109"
       y="78.8545"
       width="29.122807"
       height="43.851341"
       id="rect886" />
  </defs>
  <sodipodi:namedview
     id="base"
     pagecolor="#ffffff"
     bordercolor="#666666"
     borderopacity="1.0"
     inkscape:pageopacity="0.0"
     inkscape:pageshadow="2"
     inkscape:zoom="1"
     inkscape:cx="111.94354"
     inkscape:cy="193.47382"
     inkscape:document-units="mm"
     inkscape:current-layer="g916"
     inkscape:document-rotation="0"
     showgrid="false"
     inkscape:window-width="1900"
     inkscape:window-height="1150"
     inkscape:window-x="1930"
     inkscape:window-y="40"
     inkscape:window-maximized="1"
     fit-margin-top="0"
     fit-margin-left="0"
     fit-margin-right="0"
     fit-margin-bottom="0" />
  <metadata
     id="metadata5">
    <rdf:RDF>
      <cc:Work
         rdf:about="">
        <dc:format>image/svg+xml</dc:format>
        <dc:type
           rdf:resource="http://purl.org/dc/dcmitype/StillImage" />
        <dc:title>StreamerRetriever</dc:title>
        <cc:license
           rdf:resource="http://creativecommons.org/licenses/by-sa/4.0/" />
        <dc:date>17/09/2020</dc:date>
        <dc:creator>
          <cc:Agent>
            <dc:title>obtusescholar</dc:title>
          </cc:Agent>
        </dc:creator>
      </cc:Work>
      <cc:License
         rdf:about="http://creativecommons.org/licenses/by-sa/4.0/">
        <cc:permits
           rdf:resource="http://creativecommons.org/ns#Reproduction" />
        <cc:permits
           rdf:resource="http://creativecommons.org/ns#Distribution" />
        <cc:requires
           rdf:resource="http://creativecommons.org/ns#Notice" />
        <cc:requires
           rdf:resource="http://creativecommons.org/ns#Attribution" />
        <cc:permits
           rdf:resource="http://creativecommons.org/ns#DerivativeWorks" />
        <cc:requires
           rdf:resource="http://creativecommons.org/ns#ShareAlike" />
      </cc:License>
    </rdf:RDF>
  </metadata>
  <g
     inkscape:groupmode="layer"
     id="layer2"
     inkscape:label="Layer 2"
     style="display:inline"
     transform="translate(-12,-12)">
    <g
       id="g1025"
       style="display:inline">
      <path
         style="display:inline;fill:#2c1b3c;fill-opacity:1;stroke-width:0.206514"
         d="M 71.999954,12 C 69.130207,12 16.69624,12.637802 14.667021,14.667021 12.637802,16.69624 12,69.130206 12,71.999953 c 0,2.084366 0.33693,30.303367 1.298629,46.377537 l 12.323795,12.32379 c 16.074167,0.9617 44.293169,1.29863 46.37753,1.29863 2.86975,0 55.303716,-0.6378 57.332936,-2.66702 2.02922,-2.02922 2.66702,-54.463187 2.66702,-57.332937 0,-2.084361 -0.33693,-30.303353 -1.29863,-46.37753 L 118.37749,13.298629 C 102.30331,12.33693 74.08432,12 71.999954,12 Z"
         id="path50" />
      <path
         style="display:inline;fill:#976cbd;fill-opacity:1;stroke-width:0.206514"
         d="m 84.000256,23.999783 c -2.869748,0 -55.304232,0.637802 -57.333451,2.667021 -2.029219,2.029219 -2.667021,54.463703 -2.667021,57.333451 0,2.084342 0.336954,30.302765 1.298629,46.377015 l 12.324313,12.32431 c 16.074403,0.96168 44.29319,1.29863 46.37753,1.29863 1.624512,0 19.126184,-0.20487 34.381884,-0.75034 l 24.86774,-24.86773 c 0.54547,-15.2557 0.75034,-32.757373 0.75034,-34.381885 0,-2.084364 -0.33744,-30.30387 -1.29914,-46.378047 L 130.37779,25.298929 c -16.07418,-0.9617 -44.293168,-1.299146 -46.377534,-1.299146 z"
         id="path59" />
    </g>
    <g
       id="g916"
       style="display:inline"
       inkscape:label="g916">
      <path
         style="display:none;fill:#2c1b3c;fill-opacity:1;stroke-width:0.206514"
         d="M 130.89972,29.320907 114.67952,13.100708 C 98.322303,12.291562 73.93304,12 71.999955,12 69.130207,12 16.69624,12.637801 14.667021,14.66702 12.637802,16.696239 12,69.130204 12,71.999955 c 0,1.933085 0.291563,26.322492 1.100708,42.679565 l 16.220199,16.2202 c 16.357079,0.80915 40.74596,1.10071 42.679048,1.10071 2.869747,0 55.304225,-0.6378 57.333455,-2.66702 2.02921,-2.02922 2.66702,-54.463708 2.66702,-57.333455 0,-1.933083 -0.29157,-26.321986 -1.10071,-42.679048 z"
         id="path890" />
      <path
         style="display:none;fill:#976cbd;fill-opacity:1;stroke-width:0.780525"
         d="m 332.59766,105.82617 c -10.8463,0 -209.02192,2.41059 -216.69141,10.08008 -7.66949,7.66949 -10.08008,205.8451 -10.08008,216.69141 0,7.30614 1.10197,99.48659 4.16016,161.30859 l 61.30469,61.30469 c 61.82203,3.0582 154.00048,4.16015 161.30664,4.16015 7.15342,0 95.61507,-1.06039 157.34375,-3.97461 l 65.45507,-65.45507 c 2.91422,-61.72868 3.97461,-150.19033 3.97461,-157.34375 0,-7.30614 -1.10199,-99.48468 -4.16015,-161.30664 l -61.30469,-61.30469 c -61.82256,-3.05819 -154.00245,-4.16016 -161.30859,-4.16016 z"
         transform="scale(0.26458333)"
         id="path908" />
      <path
         sodipodi:type="star"
         style="display:inline;fill:#f0ecf4;fill-opacity:1;stroke-width:0.264583"
         id="path910"
         sodipodi:sides="3"
         sodipodi:cx="73.485107"
         sodipodi:cy="83.999992"
         sodipodi:r1="48.90646"
         sodipodi:r2="27.876678"
         sodipodi:arg1="0"
         sodipodi:arg2="1.0471976"
         inkscape:flatsided="false"
         inkscape:rounded="0.07"
         inkscape:randomized="0"
         d="m 122.39157,83.999992 c 0,2.974466 -32.392162,22.654678 -34.968125,24.141908 -2.575962,1.48724 -35.815605,19.69956 -38.391567,18.21233 -2.575963,-1.48723 -3.423449,-39.379773 -3.423449,-42.354239 0,-2.974466 0.847486,-40.867003 3.423449,-42.354235 2.575963,-1.487233 35.815607,16.725092 38.39157,18.212325 2.575963,1.487233 34.968122,21.167446 34.968122,24.141911 z"
         inkscape:transform-center-x="-10.514889" />
      <circle
         style="display:inline;fill:#2c1b3c;fill-opacity:1;stroke:none;stroke-width:0.408806;stroke-opacity:1"
         id="path58"
         cx="98"
         cy="98"
         r="41" />
      <g
         id="g1093">
        <g
           id="g1003"
           transform="matrix(1.2703672,0,0,1.2703672,-12.880401,-26.170251)"
           style="display:inline"
           inkscape:label="nro6">
          <path
             style="fill:#f0ecf4;fill-opacity:1;stroke:none;stroke-width:0.264583px;stroke-linecap:butt;stroke-linejoin:miter;stroke-opacity:1"
             d="m 93.920093,75.172095 c 0,0 -18.4118,9.569472 -20.310778,20.501288 -1.898978,10.931817 -0.843855,24.656057 13.063904,24.641687 13.907761,-0.0144 15.015271,-8.31072 15.002771,-14.73266 -0.0125,-6.421934 -6.45021,-12.466504 -12.572253,-12.425154 -6.122044,0.04135 -10.303002,3.341535 -11.537639,5.516815 -0.837342,1.475299 0.684922,2.484759 0.684922,2.484759 -0.687491,-1.404541 -1.950283,-10.233884 15.485482,-20.155936 z"
             id="path997"
             sodipodi:nodetypes="czzzzsccc" />
          <path
             style="fill:#2c1b3c;fill-opacity:1;stroke:none;stroke-width:0.264583px;stroke-linecap:butt;stroke-linejoin:miter;stroke-opacity:1"
             d="m 88.201001,97.323561 c 5.737744,-0.228628 9.398645,3.391939 9.406184,9.405049 0.0075,6.01311 -3.042737,9.02867 -9.729363,9.20049 -6.686626,0.17181 -10.222318,-3.15911 -10.481339,-8.67238 -0.259021,-5.51328 5.066774,-9.70453 10.804518,-9.933159 z"
             id="path999"
             sodipodi:nodetypes="zzzzz" />
        </g>
      </g>
    </g>
  </g>
</svg>
