<?xml version="1.0" encoding="UTF-8" standalone="no"?>
<svg
   xmlns:dc="http://purl.org/dc/elements/1.1/"
   xmlns:cc="http://creativecommons.org/ns#"
   xmlns:rdf="http://www.w3.org/1999/02/22-rdf-syntax-ns#"
   xmlns:svg="http://www.w3.org/2000/svg"
   xmlns="http://www.w3.org/2000/svg"
   xmlns:sodipodi="http://sodipodi.sourceforge.net/DTD/sodipodi-0.dtd"
   xmlns:inkscape="http://www.inkscape.org/namespaces/inkscape"
   width="132.00021mm"
   height="132.00021mm"
   viewBox="0 0 132.00021 132.00021"
   version="1.1"
   id="svg8"
   inkscape:version="1.0.1 (3bc2e813f5, 2020-09-07, custom)"
   sodipodi:docname="cog.svg">
  <title
     id="title951">StreamerRetriever</title>
  <defs
     id="defs2" />
  <sodipodi:namedview
     id="base"
     pagecolor="#ffffff"
     bordercolor="#666666"
     borderopacity="1.0"
     inkscape:pageopacity="0.0"
     inkscape:pageshadow="2"
     inkscape:zoom="1.4142136"
     inkscape:cx="153.88029"
     inkscape:cy="250.12682"
     inkscape:document-units="mm"
     inkscape:current-layer="layer1"
     inkscape:document-rotation="0"
     showgrid="false"
     inkscape:window-width="1900"
     inkscape:window-height="1150"
     inkscape:window-x="1930"
     inkscape:window-y="40"
     inkscape:window-maximized="0"
     fit-margin-top="0"
     fit-margin-left="0"
     fit-margin-right="0"
     fit-margin-bottom="0"
     lock-margins="false" />
  <metadata
     id="metadata5">
    <rdf:RDF>
      <cc:Work
         rdf:about="">
        <dc:format>image/svg+xml</dc:format>
        <dc:type
           rdf:resource="http://purl.org/dc/dcmitype/StillImage" />
        <dc:title>StreamerRetriever</dc:title>
        <cc:license
           rdf:resource="http://creativecommons.org/licenses/by-sa/4.0/" />
        <dc:date>17/09/2020</dc:date>
        <dc:creator>
          <cc:Agent>
            <dc:title>obtusescholar</dc:title>
          </cc:Agent>
        </dc:creator>
      </cc:Work>
      <cc:License
         rdf:about="http://creativecommons.org/licenses/by-sa/4.0/">
        <cc:permits
           rdf:resource="http://creativecommons.org/ns#Reproduction" />
        <cc:permits
           rdf:resource="http://creativecommons.org/ns#Distribution" />
        <cc:requires
           rdf:resource="http://creativecommons.org/ns#Notice" />
        <cc:requires
           rdf:resource="http://creativecommons.org/ns#Attribution" />
        <cc:permits
           rdf:resource="http://creativecommons.org/ns#DerivativeWorks" />
        <cc:requires
           rdf:resource="http://creativecommons.org/ns#ShareAlike" />
      </cc:License>
    </rdf:RDF>
  </metadata>
  <g
     inkscape:label="Layer 1"
     id="layer1"
     inkscape:groupmode="layer"
     style="display:inline"
     transform="translate(-12,-12)">
    <path
       id="path25"
       style="fill:#2d343a;stroke-width:0.154037;fill-opacity:1"
       inkscape:transform-center-y="-5.5690842e-06"
       d="m 67.075191,27.631562 c -1.352074,0.03001 -3.522943,0.576748 -7.017657,1.869653 -18.638486,6.895497 5.116898,5.40154 -9.464024,18.90479 -14.580921,13.503246 -11.27097,-10.067626 -19.574515,7.987625 -8.303546,18.055251 7.437594,0.20125 6.675562,20.059759 -0.76203,19.858505 -15.088796,0.850765 -8.193299,19.489247 6.895497,18.638494 5.401541,-5.116898 18.90479,9.464024 13.503246,14.58092 -10.067625,11.27098 7.987626,19.57451 18.055251,8.30356 0.20125,-7.43759 20.059758,-6.67555 19.858505,0.76202 0.850765,15.08879 19.489248,8.19329 18.63849,-6.89549 -5.116899,-5.40154 9.46402,-18.90479 14.58092,-13.503247 11.27098,10.06763 19.57452,-7.987624 8.30355,-18.055253 -7.4376,-0.20125 -6.67556,-20.059758 0.76203,-19.858505 15.0888,-0.850765 8.19329,-19.489248 -6.89549,-18.638485 -5.40153,5.116899 -18.90479,-9.464024 C 94.090916,36.012546 117.66179,39.322497 99.60654,31.018952 81.551286,22.715406 99.40529,38.456545 79.546781,37.694513 63.411746,37.075364 72.934177,27.501526 67.075191,27.631562 Z m 10.841717,24.869799 a 25.49868,25.49868 0 0 1 0.0832,0 A 25.49868,25.49868 0 0 1 103.49881,78.000063 25.49868,25.49868 0 0 1 78.000107,103.49877 25.49868,25.49868 0 0 1 52.501404,78.000063 25.49868,25.49868 0 0 1 77.916908,52.501361 Z" />
    <g
       id="g860"
       style="display:none">
      <path
         sodipodi:type="star"
         style="fill:#d8dee9;stroke-width:0.154037"
         id="path856"
         sodipodi:sides="8"
         sodipodi:cx="78.000107"
         sodipodi:cy="78.000107"
         sodipodi:r1="40.335022"
         sodipodi:r2="51.711571"
         sodipodi:arg1="-2.3178403"
         sodipodi:arg2="-1.9251412"
         inkscape:flatsided="false"
         inkscape:rounded="0.94"
         inkscape:randomized="0"
         d="m 50.593553,48.406277 c 14.580922,-13.503249 -9.174606,-12.009611 9.463879,-18.905108 18.638484,-6.895497 -0.369194,7.431549 19.489313,8.193579 19.858507,0.762032 2.00465,-14.979502 20.059903,-6.675956 18.055252,8.303546 -5.515958,4.993839 7.987292,19.574761 13.50325,14.580922 12.00961,-9.174606 18.9051,9.463879 6.8955,18.638484 -7.43154,-0.369194 -8.19357,19.489313 -0.76204,19.858507 14.9795,2.00465 6.67595,20.059903 -8.30354,18.055252 -4.99384,-5.515958 -19.57476,7.987292 -14.580922,13.50325 9.17461,12.00961 -9.463879,18.9051 -18.638484,6.8955 0.369194,-7.43154 -19.489312,-8.19357 -19.858508,-0.76204 -2.004651,14.9795 -20.059903,6.67595 -18.055251,-8.30354 5.515958,-4.99384 -7.987289,-19.57476 -13.503249,-14.580922 -12.009611,9.17461 -18.905108,-9.463879 -6.895497,-18.638484 7.431549,0.369194 8.193579,-19.489312 0.762032,-19.858508 -14.979502,-2.004651 -6.675956,-20.059903 8.303546,-18.055251 4.993839,5.515958 19.574761,-7.987289 z"
         inkscape:transform-center-y="-5.5690842e-06" />
      <circle
         style="fill:#ffffff;fill-opacity:1;stroke-width:0.173592"
         id="circle858"
         cx="78.000107"
         cy="78.000107"
         r="25.49868" />
    </g>
  </g>
</svg>
