<?xml version="1.0" encoding="UTF-8" standalone="no"?>
<svg
   xmlns:dc="http://purl.org/dc/elements/1.1/"
   xmlns:cc="http://creativecommons.org/ns#"
   xmlns:rdf="http://www.w3.org/1999/02/22-rdf-syntax-ns#"
   xmlns:svg="http://www.w3.org/2000/svg"
   xmlns="http://www.w3.org/2000/svg"
   xmlns:sodipodi="http://sodipodi.sourceforge.net/DTD/sodipodi-0.dtd"
   xmlns:inkscape="http://www.inkscape.org/namespaces/inkscape"
   width="132.00021mm"
   height="132.00021mm"
   viewBox="0 0 132.00021 132.00021"
   version="1.1"
   id="svg8"
   inkscape:version="1.0.2 (e86c870879, 2021-01-15)"
   sodipodi:docname="menubar.svg">
  <title
     id="title951">StreamerRetriever</title>
  <defs
     id="defs2" />
  <sodipodi:namedview
     id="base"
     pagecolor="#ffffff"
     bordercolor="#666666"
     borderopacity="1.0"
     inkscape:pageopacity="0.0"
     inkscape:pageshadow="2"
     inkscape:zoom="0.70710678"
     inkscape:cx="91.399254"
     inkscape:cy="281.44454"
     inkscape:document-units="mm"
     inkscape:current-layer="layer1"
     inkscape:document-rotation="0"
     showgrid="false"
     inkscape:window-width="1900"
     inkscape:window-height="1150"
     inkscape:window-x="1930"
     inkscape:window-y="40"
     inkscape:window-maximized="0"
     fit-margin-top="0"
     fit-margin-left="0"
     fit-margin-right="0"
     fit-margin-bottom="0"
     lock-margins="false" />
  <metadata
     id="metadata5">
    <rdf:RDF>
      <cc:Work
         rdf:about="">
        <dc:format>image/svg+xml</dc:format>
        <dc:type
           rdf:resource="http://purl.org/dc/dcmitype/StillImage" />
        <dc:title>StreamerRetriever</dc:title>
        <cc:license
           rdf:resource="http://creativecommons.org/licenses/by-sa/4.0/" />
        <dc:date>17/09/2020</dc:date>
        <dc:creator>
          <cc:Agent>
            <dc:title>obtusescholar</dc:title>
          </cc:Agent>
        </dc:creator>
      </cc:Work>
      <cc:License
         rdf:about="http://creativecommons.org/licenses/by-sa/4.0/">
        <cc:permits
           rdf:resource="http://creativecommons.org/ns#Reproduction" />
        <cc:permits
           rdf:resource="http://creativecommons.org/ns#Distribution" />
        <cc:requires
           rdf:resource="http://creativecommons.org/ns#Notice" />
        <cc:requires
           rdf:resource="http://creativecommons.org/ns#Attribution" />
        <cc:permits
           rdf:resource="http://creativecommons.org/ns#DerivativeWorks" />
        <cc:requires
           rdf:resource="http://creativecommons.org/ns#ShareAlike" />
      </cc:License>
    </rdf:RDF>
  </metadata>
  <g
     inkscape:label="Layer 1"
     id="layer1"
     inkscape:groupmode="layer"
     style="display:inline"
     transform="translate(-12,-12)">
    <g
       id="g1572"
       transform="translate(1.7618278,3.3741288)">
      <path
         id="rect1565"
         style="display:inline;fill:#2d343a;fill-opacity:1;stroke:none;stroke-width:5.11682;stroke-linejoin:round;stroke-miterlimit:4;stroke-dasharray:none;stroke-opacity:1"
         d="m 76.610617,30.905075 c 27.888513,0 50.340283,0.623608 50.340283,1.398225 v 8.242968 c 0,0.774616 -22.45177,1.398225 -50.340283,1.398225 -27.888515,0 -50.340279,-0.623609 -50.340279,-1.398225 V 32.3033 c 0,-0.774617 22.451764,-1.398225 50.340279,-1.398225 z" />
      <path
         style="color:#000000;font-style:normal;font-variant:normal;font-weight:normal;font-stretch:normal;font-size:medium;line-height:normal;font-family:sans-serif;font-variant-ligatures:normal;font-variant-position:normal;font-variant-caps:normal;font-variant-numeric:normal;font-variant-alternates:normal;font-variant-east-asian:normal;font-feature-settings:normal;font-variation-settings:normal;text-indent:0;text-align:start;text-decoration:none;text-decoration-line:none;text-decoration-style:solid;text-decoration-color:#000000;letter-spacing:normal;word-spacing:normal;text-transform:none;writing-mode:lr-tb;direction:ltr;text-orientation:mixed;dominant-baseline:auto;baseline-shift:baseline;text-anchor:start;white-space:normal;shape-padding:0;shape-margin:0;inline-size:0;clip-rule:nonzero;display:inline;overflow:visible;visibility:visible;opacity:1;isolation:auto;mix-blend-mode:normal;color-interpolation:sRGB;color-interpolation-filters:linearRGB;solid-color:#000000;solid-opacity:1;vector-effect:none;fill:#2d343a;fill-opacity:1;fill-rule:nonzero;stroke:none;stroke-linecap:butt;stroke-linejoin:round;stroke-miterlimit:4;stroke-dasharray:none;stroke-dashoffset:0;stroke-opacity:1;color-rendering:auto;image-rendering:auto;shape-rendering:auto;text-rendering:auto;enable-background:accumulate;stop-color:#000000;stop-opacity:1"
         d="m 76.238281,23.191406 c -14.200474,0 -27.008801,1.340121 -36.55664,3.619141 -4.77392,1.13951 -8.72454,2.481167 -11.810547,4.228515 -3.086007,1.747349 -5.972657,4.255269 -5.972656,8.167969 v 70.837889 c -10e-7,3.9127 2.886649,6.41867 5.972656,8.16602 3.086007,1.74735 7.036627,3.089 11.810547,4.22851 9.547839,2.27902 22.356166,3.6211 36.55664,3.6211 14.200473,0 27.008799,-1.34208 36.556639,-3.6211 4.77392,-1.13951 8.72454,-2.48116 11.81055,-4.22851 3.08601,-1.74735 5.97266,-4.25332 5.97265,-8.16602 V 39.207031 c 10e-6,-3.912701 -2.88664,-6.42062 -5.97265,-8.167969 -3.08601,-1.747348 -7.03663,-3.089005 -11.81055,-4.228515 -9.54784,-2.27902 -22.356166,-3.619141 -36.556639,-3.619141 z m 0,8 c 13.68804,0 26.049049,1.337593 34.699219,3.402344 4.32509,1.032375 7.73135,2.278479 9.72656,3.408203 1.99522,1.129724 1.91407,1.789358 1.91406,1.205078 v 70.837889 c 0,-0.58428 0.0812,0.0754 -1.91406,1.20508 -1.99521,1.12972 -5.40147,2.37583 -9.72656,3.4082 -8.65017,2.06475 -21.011179,3.40235 -34.699219,3.40235 -13.688041,0 -26.049047,-1.3376 -34.699219,-3.40235 -4.325085,-1.03237 -7.731347,-2.27848 -9.726562,-3.4082 -1.995215,-1.12972 -1.914062,-1.78936 -1.914062,-1.20508 V 39.207031 c 0,0.584279 -0.08115,-0.07535 1.914062,-1.205078 1.995215,-1.129723 5.401477,-2.375828 9.726562,-3.408203 8.650172,-2.064751 21.011178,-3.402344 34.699219,-3.402344 z"
         id="rect1567" />
    </g>
  </g>
</svg>
