<?xml version="1.0" encoding="UTF-8" standalone="no"?>
<svg
   xmlns:dc="http://purl.org/dc/elements/1.1/"
   xmlns:cc="http://creativecommons.org/ns#"
   xmlns:rdf="http://www.w3.org/1999/02/22-rdf-syntax-ns#"
   xmlns:svg="http://www.w3.org/2000/svg"
   xmlns="http://www.w3.org/2000/svg"
   xmlns:sodipodi="http://sodipodi.sourceforge.net/DTD/sodipodi-0.dtd"
   xmlns:inkscape="http://www.inkscape.org/namespaces/inkscape"
   width="132.00021mm"
   height="132.00021mm"
   viewBox="0 0 132.00021 132.00021"
   version="1.1"
   id="svg8"
   inkscape:version="1.0.2 (e86c870879, 2021-01-15)"
   sodipodi:docname="columns.svg">
  <title
     id="title951">StreamerRetriever</title>
  <defs
     id="defs2" />
  <sodipodi:namedview
     id="base"
     pagecolor="#ffffff"
     bordercolor="#666666"
     borderopacity="1.0"
     inkscape:pageopacity="0.0"
     inkscape:pageshadow="2"
     inkscape:zoom="0.70710678"
     inkscape:cx="91.399254"
     inkscape:cy="281.44454"
     inkscape:document-units="mm"
     inkscape:current-layer="layer1"
     inkscape:document-rotation="0"
     showgrid="false"
     inkscape:window-width="1900"
     inkscape:window-height="1150"
     inkscape:window-x="1930"
     inkscape:window-y="40"
     inkscape:window-maximized="0"
     fit-margin-top="0"
     fit-margin-left="0"
     fit-margin-right="0"
     fit-margin-bottom="0"
     lock-margins="false" />
  <metadata
     id="metadata5">
    <rdf:RDF>
      <cc:Work
         rdf:about="">
        <dc:format>image/svg+xml</dc:format>
        <dc:type
           rdf:resource="http://purl.org/dc/dcmitype/StillImage" />
        <dc:title>StreamerRetriever</dc:title>
        <cc:license
           rdf:resource="http://creativecommons.org/licenses/by-sa/4.0/" />
        <dc:date>17/09/2020</dc:date>
        <dc:creator>
          <cc:Agent>
            <dc:title>obtusescholar</dc:title>
          </cc:Agent>
        </dc:creator>
      </cc:Work>
      <cc:License
         rdf:about="http://creativecommons.org/licenses/by-sa/4.0/">
        <cc:permits
           rdf:resource="http://creativecommons.org/ns#Reproduction" />
        <cc:permits
           rdf:resource="http://creativecommons.org/ns#Distribution" />
        <cc:requires
           rdf:resource="http://creativecommons.org/ns#Notice" />
        <cc:requires
           rdf:resource="http://creativecommons.org/ns#Attribution" />
        <cc:permits
           rdf:resource="http://creativecommons.org/ns#DerivativeWorks" />
        <cc:requires
           rdf:resource="http://creativecommons.org/ns#ShareAlike" />
      </cc:License>
    </rdf:RDF>
  </metadata>
  <g
     inkscape:label="Layer 1"
     id="layer1"
     inkscape:groupmode="layer"
     style="display:inline"
     transform="translate(-12,-12)">
    <g
       id="g1572"
       transform="translate(-21.558407,3.3739755)">
      <path
         id="rect1565"
         style="display:inline;fill:#e5eff6;fill-opacity:1;stroke:none;stroke-width:19.3392;stroke-linejoin:round;stroke-miterlimit:4;stroke-dasharray:none;stroke-opacity:1"
         d="m 293.51953,0.00390625 c -21.59957,0 -42.32459,0.83334583 -61.75976,2.37499995 V 70.574219 c 19.78687,0.193134 40.93327,0.30664 63.16601,0.30664 21.17024,0 41.37185,-0.101567 60.34961,-0.277343 V 2.3789062 C 335.84116,0.83735322 315.11838,0.00390625 293.51953,0.00390625 Z M 201.52539,5.4765625 C 184.6117,7.6429764 169.08475,10.4036 155.35156,13.681641 137.3084,17.98845 122.37654,23.059916 110.71289,29.664062 99.049242,36.268216 88.140621,45.746999 88.140625,60.535156 V 328.26953 c -4e-6,14.78816 10.908617,24.25913 22.572265,30.86328 11.66365,6.60416 26.59551,11.67366 44.63867,15.98047 36.08632,8.61362 84.49689,13.6875 138.16797,13.6875 53.67108,0 102.07969,-5.07388 138.16602,-13.6875 18.04316,-4.30681 32.97501,-9.37631 44.63867,-15.98047 11.66366,-6.60415 22.57426,-16.07512 22.57422,-30.86328 V 60.535156 c 4e-5,-10.893528 -5.92838,-18.899274 -13.70899,-25.003906 v -1.089844 c 0,-0.299981 -0.93792,-0.592841 -2.65039,-0.878906 -2.00715,-1.403131 -4.09721,-2.69939 -6.21484,-3.898438 C 464.66056,23.059916 449.72871,17.98845 431.68555,13.681641 417.95236,10.4036 402.42505,7.6429754 385.51172,5.4765625 V 70.232422 c 36.59579,-0.551988 66.10459,-1.416945 83.15039,-2.480469 V 328.26953 c 0,-2.2083 0.30688,0.28499 -7.23438,4.55469 -7.54095,4.26981 -20.41492,8.97899 -36.76171,12.88086 -32.69356,7.80378 -79.41219,12.85937 -131.14649,12.85937 -51.73433,0 -98.45292,-5.05559 -131.14648,-12.85937 -16.34678,-3.90187 -29.2227,-8.61105 -36.76367,-12.88086 -6.59835,-3.73606 -7.18804,-6.11375 -7.23243,-5.16992 V 67.566406 c 16.11422,1.118684 45.79704,2.036275 83.14844,2.623047 z"
         transform="matrix(0.26458333,0,0,0.26458333,21.898138,23.190512)" />
    </g>
  </g>
</svg>
