<?xml version="1.0" encoding="UTF-8" standalone="no"?>
<svg
   xmlns:dc="http://purl.org/dc/elements/1.1/"
   xmlns:cc="http://creativecommons.org/ns#"
   xmlns:rdf="http://www.w3.org/1999/02/22-rdf-syntax-ns#"
   xmlns:svg="http://www.w3.org/2000/svg"
   xmlns="http://www.w3.org/2000/svg"
   xmlns:sodipodi="http://sodipodi.sourceforge.net/DTD/sodipodi-0.dtd"
   xmlns:inkscape="http://www.inkscape.org/namespaces/inkscape"
   width="132.00021mm"
   height="132.00021mm"
   viewBox="0 0 132.00021 132.00021"
   version="1.1"
   id="svg8"
   inkscape:version="1.0.2 (e86c870879, 2021-01-15)"
   sodipodi:docname="download.svg">
  <title
     id="title951">StreamerRetriever</title>
  <defs
     id="defs2">
    <marker
       style="overflow:visible"
       id="marker1420"
       refX="0.0"
       refY="0.0"
       orient="auto"
       inkscape:stockid="Arrow1Lstart"
       inkscape:isstock="true">
      <path
         transform="scale(0.8) translate(12.5,0)"
         style="fill-rule:evenodd;stroke:#d8dee9;stroke-width:1pt;stroke-opacity:1;fill:#d8dee9;fill-opacity:1"
         d="M 0.0,0.0 L 5.0,-5.0 L -12.5,0.0 L 5.0,5.0 L 0.0,0.0 z "
         id="path1418" />
    </marker>
    <marker
       style="overflow:visible"
       id="Arrow1Lstart"
       refX="0.0"
       refY="0.0"
       orient="auto"
       inkscape:stockid="Arrow1Lstart"
       inkscape:isstock="true">
      <path
         transform="scale(0.8) translate(12.5,0)"
         style="fill-rule:evenodd;stroke:#d8dee9;stroke-width:1pt;stroke-opacity:1;fill:#d8dee9;fill-opacity:1"
         d="M 0.0,0.0 L 5.0,-5.0 L -12.5,0.0 L 5.0,5.0 L 0.0,0.0 z "
         id="path962" />
    </marker>
  </defs>
  <sodipodi:namedview
     id="base"
     pagecolor="#ffffff"
     bordercolor="#666666"
     borderopacity="1.0"
     inkscape:pageopacity="0.0"
     inkscape:pageshadow="2"
     inkscape:zoom="1"
     inkscape:cx="90.38505"
     inkscape:cy="343.75468"
     inkscape:document-units="mm"
     inkscape:current-layer="g2201"
     inkscape:document-rotation="0"
     showgrid="false"
     inkscape:window-width="1900"
     inkscape:window-height="1150"
     inkscape:window-x="1930"
     inkscape:window-y="40"
     inkscape:window-maximized="0"
     fit-margin-top="0"
     fit-margin-left="0"
     fit-margin-right="0"
     fit-margin-bottom="0"
     lock-margins="false" />
  <metadata
     id="metadata5">
    <rdf:RDF>
      <cc:Work
         rdf:about="">
        <dc:format>image/svg+xml</dc:format>
        <dc:type
           rdf:resource="http://purl.org/dc/dcmitype/StillImage" />
        <dc:title>StreamerRetriever</dc:title>
        <cc:license
           rdf:resource="http://creativecommons.org/licenses/by-sa/4.0/" />
        <dc:date>17/09/2020</dc:date>
        <dc:creator>
          <cc:Agent>
            <dc:title>obtusescholar</dc:title>
          </cc:Agent>
        </dc:creator>
      </cc:Work>
      <cc:License
         rdf:about="http://creativecommons.org/licenses/by-sa/4.0/">
        <cc:permits
           rdf:resource="http://creativecommons.org/ns#Reproduction" />
        <cc:permits
           rdf:resource="http://creativecommons.org/ns#Distribution" />
        <cc:requires
           rdf:resource="http://creativecommons.org/ns#Notice" />
        <cc:requires
           rdf:resource="http://creativecommons.org/ns#Attribution" />
        <cc:permits
           rdf:resource="http://creativecommons.org/ns#DerivativeWorks" />
        <cc:requires
           rdf:resource="http://creativecommons.org/ns#ShareAlike" />
      </cc:License>
    </rdf:RDF>
  </metadata>
  <g
     inkscape:label="Layer 1"
     id="layer1"
     inkscape:groupmode="layer"
     style="display:inline"
     transform="translate(-12,-12)">
    <g
       id="g1513"
       style="display:none"
       transform="matrix(-0.99501053,-0.09976987,-0.09976987,0.99501053,159.87992,26.079533)">
      <g
         id="g2195">
        <path
           style="fill:#d8dee9;fill-opacity:1;stroke:none;stroke-width:13.6348;stroke-linecap:butt;stroke-miterlimit:4;stroke-dasharray:none;stroke-opacity:1"
           id="path960"
           d="m 27.302475,73.56464 a 50.891289,50.891289 0 0 1 27.19865,-40.705658 50.891289,50.891289 0 0 1 48.944625,1.067977 L 78.000107,78.000107 Z"
           sodipodi:type="arc"
           sodipodi:arc-type="slice"
           sodipodi:start="3.2288591"
           sodipodi:end="5.2359878"
           sodipodi:ry="50.891289"
           sodipodi:rx="50.891289"
           sodipodi:cy="78.000107"
           sodipodi:cx="78.000107" />
        <path
           style="display:inline;fill:#fefeff;fill-opacity:1;stroke:none;stroke-width:13.8746;stroke-linecap:butt;stroke-linejoin:miter;stroke-miterlimit:4;stroke-dasharray:none;stroke-opacity:1"
           id="path1462"
           sodipodi:type="arc"
           sodipodi:cx="78.000107"
           sodipodi:cy="78.000107"
           sodipodi:rx="36.918591"
           sodipodi:ry="36.918591"
           sodipodi:start="3.2288591"
           sodipodi:end="5.2359878"
           sodipodi:arc-type="slice"
           d="M 41.222003,74.78244 A 36.918591,36.918591 0 0 1 60.952999,45.252917 36.918591,36.918591 0 0 1 96.459403,46.02767 L 78.000107,78.000107 Z" />
      </g>
      <path
         sodipodi:type="star"
         style="display:inline;fill:#d8dee9;fill-opacity:1;stroke-width:0.136183"
         id="path910"
         sodipodi:sides="3"
         sodipodi:cx="101.03356"
         sodipodi:cy="39.772175"
         sodipodi:r1="25.172447"
         sodipodi:r2="14.348294"
         sodipodi:arg1="0"
         sodipodi:arg2="1.0471976"
         inkscape:flatsided="false"
         inkscape:rounded="0.07"
         inkscape:randomized="0"
         d="m 126.20601,39.772175 c 0,1.530975 -16.67244,11.6605 -17.9983,12.425988 -1.32587,0.765487 -18.434508,10.139478 -19.760372,9.373991 -1.325863,-0.765488 -1.762071,-20.269004 -1.762071,-21.79998 0,-1.530975 0.436208,-21.03449 1.762071,-21.799978 1.325864,-0.765488 18.434512,8.608504 19.760372,9.373992 1.32586,0.765487 17.9983,10.895012 17.9983,12.425987 z"
         inkscape:transform-center-x="3.0886535"
         transform="rotate(44.552888,95.858329,48.426364)"
         inkscape:transform-center-y="-3.2709482" />
    </g>
    <g
       id="g2205"
       style="display:inline"
       transform="rotate(49.216346,49.429258,71.721194)">
      <g
         id="g2201">
        <path
           id="path2197"
           style="fill:#e5eff6;fill-opacity:1;stroke:none;stroke-width:51.5331;stroke-linecap:butt;stroke-miterlimit:4;stroke-dasharray:none;stroke-opacity:1"
           d="m 235.97461,168.48242 a 192.34503,192.34503 0 0 0 -78.65625,17.00586 l 21.70898,48.14063 a 139.53483,139.53483 0 0 1 133.82032,10.47461 139.53483,139.53483 0 0 1 63.0664,118.49023 l 52.80664,0.66992 A 192.34503,192.34503 0 0 0 341.78516,199.92773 192.34503,192.34503 0 0 0 235.97461,168.48242 Z"
           transform="matrix(-0.26326321,-0.02639745,-0.02639745,0.26326321,149.7581,-10.752272)" />
      </g>
      <path
         sodipodi:type="star"
         style="display:inline;fill:#e5eff6;fill-opacity:1;stroke-width:0.136183"
         id="path2203"
         sodipodi:sides="3"
         sodipodi:cx="101.03356"
         sodipodi:cy="39.772175"
         sodipodi:r1="25.172447"
         sodipodi:r2="14.348294"
         sodipodi:arg1="0"
         sodipodi:arg2="1.0471976"
         inkscape:flatsided="false"
         inkscape:rounded="0.07"
         inkscape:randomized="0"
         d="m 126.20601,39.772175 c 0,1.530975 -16.67244,11.6605 -17.9983,12.425988 -1.32587,0.765487 -18.434508,10.139478 -19.760372,9.373991 -1.325863,-0.765488 -1.762071,-20.269004 -1.762071,-21.79998 0,-1.530975 0.436208,-21.03449 1.762071,-21.799978 1.325864,-0.765488 18.434512,8.608504 19.760372,9.373992 1.32586,0.765487 17.9983,10.895012 17.9983,12.425987 z"
         inkscape:transform-center-x="3.0886535"
         transform="rotate(44.552888,95.858329,48.426364)"
         inkscape:transform-center-y="-3.2709482" />
    </g>
  </g>
</svg>
