<?xml version="1.0" encoding="UTF-8" standalone="no"?>
<svg
   xmlns:dc="http://purl.org/dc/elements/1.1/"
   xmlns:cc="http://creativecommons.org/ns#"
   xmlns:rdf="http://www.w3.org/1999/02/22-rdf-syntax-ns#"
   xmlns:svg="http://www.w3.org/2000/svg"
   xmlns="http://www.w3.org/2000/svg"
   xmlns:sodipodi="http://sodipodi.sourceforge.net/DTD/sodipodi-0.dtd"
   xmlns:inkscape="http://www.inkscape.org/namespaces/inkscape"
   width="132.00021mm"
   height="132.00021mm"
   viewBox="0 0 132.00021 132.00021"
   version="1.1"
   id="svg8"
   inkscape:version="1.0.1 (3bc2e813f5, 2020-09-07, custom)"
   sodipodi:docname="help.svg">
  <title
     id="title951">StreamerRetriever</title>
  <defs
     id="defs2" />
  <sodipodi:namedview
     id="base"
     pagecolor="#ffffff"
     bordercolor="#666666"
     borderopacity="1.0"
     inkscape:pageopacity="0.0"
     inkscape:pageshadow="2"
     inkscape:zoom="0.70710678"
     inkscape:cx="-553.1114"
     inkscape:cy="224.90766"
     inkscape:document-units="mm"
     inkscape:current-layer="layer1"
     inkscape:document-rotation="0"
     showgrid="false"
     inkscape:window-width="1900"
     inkscape:window-height="1150"
     inkscape:window-x="1930"
     inkscape:window-y="40"
     inkscape:window-maximized="0"
     fit-margin-top="0"
     fit-margin-left="0"
     fit-margin-right="0"
     fit-margin-bottom="0"
     lock-margins="false" />
  <metadata
     id="metadata5">
    <rdf:RDF>
      <cc:Work
         rdf:about="">
        <dc:format>image/svg+xml</dc:format>
        <dc:type
           rdf:resource="http://purl.org/dc/dcmitype/StillImage" />
        <dc:title>StreamerRetriever</dc:title>
        <cc:license
           rdf:resource="http://creativecommons.org/licenses/by-sa/4.0/" />
        <dc:date>17/09/2020</dc:date>
        <dc:creator>
          <cc:Agent>
            <dc:title>obtusescholar</dc:title>
          </cc:Agent>
        </dc:creator>
      </cc:Work>
      <cc:License
         rdf:about="http://creativecommons.org/licenses/by-sa/4.0/">
        <cc:permits
           rdf:resource="http://creativecommons.org/ns#Reproduction" />
        <cc:permits
           rdf:resource="http://creativecommons.org/ns#Distribution" />
        <cc:requires
           rdf:resource="http://creativecommons.org/ns#Notice" />
        <cc:requires
           rdf:resource="http://creativecommons.org/ns#Attribution" />
        <cc:permits
           rdf:resource="http://creativecommons.org/ns#DerivativeWorks" />
        <cc:requires
           rdf:resource="http://creativecommons.org/ns#ShareAlike" />
      </cc:License>
    </rdf:RDF>
  </metadata>
  <g
     inkscape:label="Layer 1"
     id="layer1"
     inkscape:groupmode="layer"
     style="display:inline"
     transform="translate(-12,-12)">
    <g
       id="g2238"
       style="display:none">
      <circle
         style="display:inline;fill:#d8dee9;fill-opacity:1;stroke:none;stroke-width:25.6756;stroke-miterlimit:4;stroke-dasharray:none;stroke-opacity:1"
         id="path2201"
         cx="78.000107"
         cy="78.000107"
         r="49.157471" />
      <g
         id="g2224"
         transform="translate(0,10.614174)"
         style="display:inline">
        <rect
           style="fill:#ffffff;fill-opacity:1;stroke:none;stroke-width:20;stroke-miterlimit:4;stroke-dasharray:none;stroke-opacity:1"
           id="rect2205"
           width="14.706273"
           height="14.706273"
           x="70.646973"
           y="32.646999"
           rx="5"
           ry="3" />
        <rect
           style="display:inline;fill:#ffffff;fill-opacity:1;stroke:none;stroke-width:36.2264;stroke-miterlimit:4;stroke-dasharray:none;stroke-opacity:1"
           id="rect2205-9"
           width="14.706273"
           height="48.249523"
           x="70.646973"
           y="53.875343"
           rx="5"
           ry="3" />
      </g>
    </g>
    <path
       id="circle2232"
       style="display:inline;fill:#e5eff6;fill-opacity:1;stroke:none;stroke-width:97.0416;stroke-miterlimit:4;stroke-dasharray:none;stroke-opacity:1"
       d="M 249.44922,63.65625 A 185.79202,185.79202 0 0 0 63.65625,249.44922 185.79202,185.79202 0 0 0 249.44922,435.24219 185.79202,185.79202 0 0 0 435.24219,249.44922 185.79202,185.79202 0 0 0 249.44922,63.65625 Z m -8.89453,37.48828 h 17.78906 c 10.46929,0 18.89648,5.05632 18.89648,11.33789 v 32.90625 c 0,6.28158 -8.42719,11.33789 -18.89648,11.33789 h -17.78906 c -10.46929,0 -18.89649,-5.05631 -18.89649,-11.33789 v -32.90625 c 0,-6.28157 8.4272,-11.33789 18.89649,-11.33789 z m 0,114.25 h 17.78906 c 10.46929,0 18.89648,5.05632 18.89648,11.33789 v 159.6836 c 0,6.28159 -8.42719,11.33789 -18.89648,11.33789 h -17.78906 c -10.46929,0 -18.89649,-5.0563 -18.89649,-11.33789 v -159.6836 c 0,-6.28157 8.4272,-11.33789 18.89649,-11.33789 z"
       transform="matrix(0.26458333,0,0,0.26458333,12,12)" />
  </g>
</svg>
