<?xml version="1.0" encoding="UTF-8" standalone="no"?>
<svg
   xmlns:dc="http://purl.org/dc/elements/1.1/"
   xmlns:cc="http://creativecommons.org/ns#"
   xmlns:rdf="http://www.w3.org/1999/02/22-rdf-syntax-ns#"
   xmlns:svg="http://www.w3.org/2000/svg"
   xmlns="http://www.w3.org/2000/svg"
   xmlns:sodipodi="http://sodipodi.sourceforge.net/DTD/sodipodi-0.dtd"
   xmlns:inkscape="http://www.inkscape.org/namespaces/inkscape"
   width="132.00021mm"
   height="132.00021mm"
   viewBox="0 0 132.00021 132.00021"
   version="1.1"
   id="svg8"
   inkscape:version="1.0.2 (e86c870879, 2021-01-15)"
   sodipodi:docname="phone.svg">
  <title
     id="title951">StreamerRetriever</title>
  <defs
     id="defs2" />
  <sodipodi:namedview
     id="base"
     pagecolor="#ffffff"
     bordercolor="#666666"
     borderopacity="1.0"
     inkscape:pageopacity="0.0"
     inkscape:pageshadow="2"
     inkscape:zoom="1.4142136"
     inkscape:cx="16.646447"
     inkscape:cy="241.82878"
     inkscape:document-units="mm"
     inkscape:current-layer="layer1"
     inkscape:document-rotation="0"
     showgrid="false"
     inkscape:window-width="1900"
     inkscape:window-height="1150"
     inkscape:window-x="1930"
     inkscape:window-y="40"
     inkscape:window-maximized="0"
     fit-margin-top="0"
     fit-margin-left="0"
     fit-margin-right="0"
     fit-margin-bottom="0"
     lock-margins="false" />
  <metadata
     id="metadata5">
    <rdf:RDF>
      <cc:Work
         rdf:about="">
        <dc:format>image/svg+xml</dc:format>
        <dc:type
           rdf:resource="http://purl.org/dc/dcmitype/StillImage" />
        <dc:title>StreamerRetriever</dc:title>
        <cc:license
           rdf:resource="http://creativecommons.org/licenses/by-sa/4.0/" />
        <dc:date>17/09/2020</dc:date>
        <dc:creator>
          <cc:Agent>
            <dc:title>obtusescholar</dc:title>
          </cc:Agent>
        </dc:creator>
      </cc:Work>
      <cc:License
         rdf:about="http://creativecommons.org/licenses/by-sa/4.0/">
        <cc:permits
           rdf:resource="http://creativecommons.org/ns#Reproduction" />
        <cc:permits
           rdf:resource="http://creativecommons.org/ns#Distribution" />
        <cc:requires
           rdf:resource="http://creativecommons.org/ns#Notice" />
        <cc:requires
           rdf:resource="http://creativecommons.org/ns#Attribution" />
        <cc:permits
           rdf:resource="http://creativecommons.org/ns#DerivativeWorks" />
        <cc:requires
           rdf:resource="http://creativecommons.org/ns#ShareAlike" />
      </cc:License>
    </rdf:RDF>
  </metadata>
  <g
     inkscape:label="Layer 1"
     id="layer1"
     inkscape:groupmode="layer"
     style="display:inline"
     transform="translate(-12,-12)">
    <path
       id="rect852"
       style="display:none;fill:#e5eff6;stroke-width:8.00449;stroke-linecap:round;paint-order:stroke fill markers"
       d="m 70.049204,53.477183 c -24.990729,0 -45.109392,3.5683 -45.109392,8.000545 -1.625194,8.381549 -1.010707,15.234417 -0.198115,24.424494 10.317652,0.677244 23.489737,-2.667243 23.489737,-2.667243 0.772289,-1.96068 -0.592925,-6.502275 -0.03679,-7.41086 8.325371,-12.2084 44.467829,-12.436444 53.509206,-0.09564 0.73878,1.20553 -1.08678,5.35349 0.0368,7.41086 0,0 14.17021,4.367458 23.00116,2.762888 1.94793,-9.826997 1.78361,-15.141326 0.19811,-24.424494 0,-4.432245 -20.11918,-8.000545 -45.109913,-8.000545 z"
       sodipodi:nodetypes="sccccccccss" />
    <g
       id="g907"
       transform="translate(-4.9862903,3.8205437)">
      <path
         id="circle2232"
         style="display:inline;fill:#e5eff6;fill-opacity:1;stroke:none;stroke-width:17.4393;stroke-miterlimit:4;stroke-dasharray:none;stroke-opacity:1"
         d="M 104.63336,51.788592 A 33.388633,33.388633 0 0 0 71.244557,85.177395 33.388633,33.388633 0 0 0 104.63336,118.5662 33.388633,33.388633 0 0 0 138.02217,85.177395 33.388633,33.388633 0 0 0 104.63336,51.788592 Z m -1.59843,6.737008 h 3.19687 c 1.88143,0 3.39588,0.908671 3.39588,2.03753 v 5.913573 c 0,1.128861 -1.51445,2.037528 -3.39588,2.037528 h -3.19687 c -1.88144,0 -3.395886,-0.908667 -3.395886,-2.037528 V 60.56313 c 0,-1.128859 1.514446,-2.03753 3.395886,-2.03753 z m 0,20.531836 h 3.19687 c 1.88143,0 3.39588,0.908671 3.39588,2.03753 v 28.696694 c 0,1.12886 -1.51445,2.03753 -3.39588,2.03753 h -3.19687 c -1.88144,0 -3.395886,-0.90867 -3.395886,-2.03753 V 81.094966 c 0,-1.128859 1.514446,-2.03753 3.395886,-2.03753 z" />
      <path
         id="path877"
         style="fill:#e5eff6;stroke-width:8.00449;stroke-linecap:round;paint-order:stroke fill markers"
         d="m 34.236303,73.601724 c -6.468077,24.139191 -8.228457,44.495866 -3.947237,45.643016 7.675324,3.73912 14.453727,4.91923 23.540974,6.51289 3.324572,-9.7908 3.503232,-23.37967 3.503232,-23.37967 -1.693988,-1.25344 -6.434175,-1.11019 -7.167863,-1.88254 -9.637644,-11.201456 -0.503561,-46.171412 13.756821,-51.710677 1.355663,-0.401592 4.889795,2.435334 7.167865,1.882526 0,0 7.886164,-12.55699 8.621884,-21.502326 -8.987989,-4.42497 -14.163766,-5.641699 -23.540975,-6.512884 -4.28122,-1.14715 -12.93516,17.362942 -19.403238,41.502136 z"
         sodipodi:nodetypes="sccccccccss" />
    </g>
  </g>
</svg>
