<?xml version="1.0" encoding="UTF-8" standalone="no"?>
<svg
   xmlns:dc="http://purl.org/dc/elements/1.1/"
   xmlns:cc="http://creativecommons.org/ns#"
   xmlns:rdf="http://www.w3.org/1999/02/22-rdf-syntax-ns#"
   xmlns:svg="http://www.w3.org/2000/svg"
   xmlns="http://www.w3.org/2000/svg"
   xmlns:sodipodi="http://sodipodi.sourceforge.net/DTD/sodipodi-0.dtd"
   xmlns:inkscape="http://www.inkscape.org/namespaces/inkscape"
   width="132.00021mm"
   height="132.00021mm"
   viewBox="0 0 132.00021 132.00021"
   version="1.1"
   id="svg8"
   inkscape:version="1.0.2 (e86c870879, 2021-01-15)"
   sodipodi:docname="up.svg">
  <title
     id="title951">StreamerRetriever</title>
  <defs
     id="defs2" />
  <sodipodi:namedview
     id="base"
     pagecolor="#ffffff"
     bordercolor="#666666"
     borderopacity="1.0"
     inkscape:pageopacity="0.0"
     inkscape:pageshadow="2"
     inkscape:zoom="1"
     inkscape:cx="131.88077"
     inkscape:cy="245.67879"
     inkscape:document-units="mm"
     inkscape:current-layer="g946"
     inkscape:document-rotation="0"
     showgrid="false"
     inkscape:window-width="1900"
     inkscape:window-height="1150"
     inkscape:window-x="1930"
     inkscape:window-y="40"
     inkscape:window-maximized="0"
     fit-margin-top="0"
     fit-margin-left="0"
     fit-margin-right="0"
     fit-margin-bottom="0"
     lock-margins="false" />
  <metadata
     id="metadata5">
    <rdf:RDF>
      <cc:Work
         rdf:about="">
        <dc:format>image/svg+xml</dc:format>
        <dc:type
           rdf:resource="http://purl.org/dc/dcmitype/StillImage" />
        <dc:title>StreamerRetriever</dc:title>
        <cc:license
           rdf:resource="http://creativecommons.org/licenses/by-sa/4.0/" />
        <dc:date>17/09/2020</dc:date>
        <dc:creator>
          <cc:Agent>
            <dc:title>obtusescholar</dc:title>
          </cc:Agent>
        </dc:creator>
      </cc:Work>
      <cc:License
         rdf:about="http://creativecommons.org/licenses/by-sa/4.0/">
        <cc:permits
           rdf:resource="http://creativecommons.org/ns#Reproduction" />
        <cc:permits
           rdf:resource="http://creativecommons.org/ns#Distribution" />
        <cc:requires
           rdf:resource="http://creativecommons.org/ns#Notice" />
        <cc:requires
           rdf:resource="http://creativecommons.org/ns#Attribution" />
        <cc:permits
           rdf:resource="http://creativecommons.org/ns#DerivativeWorks" />
        <cc:requires
           rdf:resource="http://creativecommons.org/ns#ShareAlike" />
      </cc:License>
    </rdf:RDF>
  </metadata>
  <g
     inkscape:label="Layer 1"
     id="layer1"
     inkscape:groupmode="layer"
     style="display:inline"
     transform="translate(-12,-12)">
    <g
       id="g946"
       transform="translate(0,0.14134454)">
      <g
         id="g940"
         transform="translate(-1.3973802e-4)"
         style="display:none">
        <rect
           style="display:inline;fill:#e5eff6;fill-opacity:1;stroke:none;stroke-width:13.9131;stroke-linejoin:round"
           id="rect934"
           width="74.186028"
           height="20.629398"
           x="-37.54348"
           y="-93.303185"
           rx="5.2369361"
           ry="5.8189998"
           transform="rotate(135)" />
        <rect
           style="display:inline;fill:#e5eff6;fill-opacity:1;stroke:none;stroke-width:13.9131;stroke-linejoin:round"
           id="rect936"
           width="74.186028"
           height="20.629398"
           x="72.761658"
           y="17.009691"
           rx="5.2369361"
           ry="5.8189998"
           transform="matrix(0.70710678,0.70710678,0.70710678,-0.70710678,0,0)" />
      </g>
      <g
         id="g5166"
         transform="translate(0,2.6269101)">
        <rect
           style="display:inline;fill:#e5eff6;fill-opacity:1;stroke:none;stroke-width:15.6595;stroke-linejoin:round"
           id="rect914"
           width="93.977524"
           height="20.629398"
           x="34.627525"
           y="-88.314804"
           rx="6.6340561"
           ry="5.8189998"
           transform="rotate(90)" />
        <path
           sodipodi:type="star"
           style="display:inline;fill:#e5eff6;fill-opacity:1;stroke-width:0.353723"
           id="path910"
           sodipodi:sides="3"
           sodipodi:cx="13.658021"
           sodipodi:cy="189.5929"
           sodipodi:r1="65.383369"
           sodipodi:r2="37.268517"
           sodipodi:arg1="0"
           sodipodi:arg2="1.0471976"
           inkscape:flatsided="false"
           inkscape:rounded="0.07"
           inkscape:randomized="0"
           inkscape:transform-center-x="1.6310643e-06"
           d="m 79.04139,189.5929 c 0,3.97658 -43.30529,30.28719 -46.749112,32.27548 -3.443822,1.98829 -47.88212,26.33647 -51.325942,24.34817 -3.443822,-1.98829 -4.576832,-52.64707 -4.576832,-56.62366 0,-3.97658 1.13301,-54.63536 4.576832,-56.62365 3.443822,-1.98829 47.882123,22.35988 51.325945,24.34817 3.443822,1.9883 46.74911,28.2989 46.749109,32.27549 z"
           transform="matrix(0,-0.49269219,0.49269219,0,-15.410832,60.801731)"
           inkscape:transform-center-y="-6.9259809" />
      </g>
    </g>
  </g>
</svg>
